 ADDRESS   00 01 02 03 04 05 06 07 08 09 0A 0B 0C 0D 0E 0F   0123456789ABCDEF 
------------------------------------------------------------------------------
 00000000  05 00 03 00 00 00 08 00 00 00 5B 00 1F 00 13 00   ..........[..... 
 00000010  04 00 18 00 60 00 30 00 28 00 00 00 E0 00 00 00   ....`.0.(....... 
 00000020  00 04 00 00                                       ....             
