 ADDRESS   00 01 02 03 04 05 06 07 08 09 0A 0B 0C 0D 0E 0F   0123456789ABCDEF 
------------------------------------------------------------------------------
 00000030  06 00 00 10 00 00 00 00 00 00 00 13 06 00 00 50   ...............P 
 00000040  04 00 00 00 00 00 00 10 0E 00 00 00 00 00 00 00   ................ 
 00000050  00 00 00 00 00 3A 01 00 50 00 00 00 00 00 00 00   .....:..P....... 
 00000060  00 00 00 00 00 00 00 00 51 00 00 00 00 00 00 00   ........Q....... 
 00000070  40 00 00 00 20 00 00 00 52 00 00 00 00 00 00 00   @... ...R....... 
 00000080  00 00 00 00 00 00 00 00 53 00 00 00 00 00 00 00   ........S....... 
 00000090  00 82 00 00 00 00 00 08 00 00 00 00 00 00 00 00   ................ 
 000000A0  00 02 00 30 00 87 01 00 00 00 00 00 00 02 00 50   ...0...........P 
 000000B0  00 00 00 60 00 00 00 00 00 00 00 13 00 00 00 00   ...`............ 
