 ADDRESS   00 01 02 03 04 05 06 07 08 09 0A 0B 0C 0D 0E 0F   0123456789ABCDEF 
------------------------------------------------------------------------------
 00000390  08 00 00 10 00 00 00 00 00 00 00 13 08 00 00 50   ...............P 
 000003A0  07 80 00 00 00 00 00 10 0E 00 00 00 00 00 00 00   ................ 
 000003B0  00 00 00 00 00 00 00 00 3F 00 00 00 00 00 00 00   ........?....... 
 000003C0  00 00 00 00 00 00 00 00 34 00 00 00 00 00 00 00   ........4....... 
 000003D0  00 00 00 00 00 00 00 00 36 00 00 00 00 00 00 00   ........6....... 
 000003E0  00 00 30 01 00 40 07 80 16 00 00 00 00 00 00 00   ..0..@.......... 
 000003F0  20 00 00 00 00 00 00 00 14 00 00 00 00 00 00 00    ............... 
 00000400  20 BA 30 DD 05 40 07 00 06 00 00 00 00 00 00 00    .0..@.......... 
 00000410  0A C0 1F 00 FC 01 00 00 08 00 00 00 00 00 00 00   ................ 
 00000420  00 00 00 60 00 00 00 00 00 00 00 13 00 00 00 00   ...`............ 
